; Engine configuration file.
; It's best edited using the editor UI and not directly,
; since the parameters that go here are not all obvious.
;
; Format:
;   [section] ; section goes between []
;   param=value ; assign values to parameters

config_version=4

[application]

config/name="TePoDoku"
run/main_scene="res://Main_Scene.tscn"
config/icon="res://icon.png"

[autoload]

GlobalVars="*res://Scripts/Vars.gd"

[display]

window/size/width=1920
window/size/height=1080
window/size/fullscreen=true

[global]

fonts=false

[gui]

common/drop_mouse_on_gui_input_disabled=true

[physics]

common/enable_pause_aware_picking=true

[rendering]

environment/default_environment="res://default_env.tres"
